Final Project
…
## Warning: 5 parsing failures.
##   row               col                     expected     actual                                         file
## 50793 to_station_id     delimiter or quote           t          'http://personal.bgsu.edu/~dashkan/trip.csv'
## 50793 birthyear         a double                     bikeid     'http://personal.bgsu.edu/~dashkan/trip.csv'
## 50793 NA                12 columns                   20 columns 'http://personal.bgsu.edu/~dashkan/trip.csv'
## 92282 from_station_name closing quote at end of file            'http://personal.bgsu.edu/~dashkan/trip.csv'
## 92282 NA                12 columns                   6 columns  'http://personal.bgsu.edu/~dashkan/trip.csv'

ds %>% mutate(age = 2015 - birthyear) ->ds
ds %>% filter(trip_id != 59000) -> ds
ds

## # A tibble: 92,281 x 13
##    trip_id starttime stoptime bikeid tripduration from_station_na
##      <dbl> <chr>     <chr>    <chr>         <dbl> <chr>           
##  1     431 10/13/20 10/13/2 SEA00         986. 2nd Ave & Sprin
##  2     432 10/13/20 10/13/2 SEA00         926. 2nd Ave & Sprin
##  3     433 10/13/20 10/13/2 SEA00         884. 2nd Ave & Sprin
##  4     434 10/13/20 10/13/2 SEA00         866. 2nd Ave & Sprin
##  5     435 10/13/20 10/13/2 SEA00         924. 2nd Ave & Sprin
##  6     436 10/13/20 10/13/2 SEA00         809. 2nd Ave & Sprin
##  7     437 10/13/20 10/13/2 SEA00         597. Occidental Park
##  8     438 10/13/20 10/13/2 SEA00         592. Occidental Park
##  9     439 10/13/20 10/13/2 SEA00         586. Occidental Park
## 10     440 10/13/20 10/13/2 SEA00         588. Occidental Park
## #  with 92,271 more rows, and 7 more variables: to_station_name <chr>,
## #   from_station_id <chr>, to_station_id <chr>, usertype <chr>,
## #   gender <chr>, birthyear <dbl>, age <dbl>
…
The graph shows that the female and other categories on average takes longer trips than male, the graph graph shows a very large number of outliers

ds2 %>% group_by(age) %>% 
  summarize(N = n(), avgtripinmin = mean(tripinmin)) %>%  arrange(desc(N)) -> avgtripbyage
avgtripbyage

## # A tibble: 58 x 3
##      age     N avgtripinmin
##    <dbl> <int>        <dbl>
##  1    NA 27632        35.1 
##  2    28  7636         9.15
##  3    34  3950        10.1 
##  4    30  3427        10.0 
##  5    33  3247        10.4 
##  6    31  3205        11.0 
##  7    27  2989        10.6 
##  8    29  2966        10.6 
##  9    32  2750         9.48
## 10    25  2533         8.55
## #  with 48 more rows
…
The short-term pass holders on average had the longer trips compared to the members. There are large number of outliers from the groups, but the members have more outliers than the short-term pass holder.

ds %>% group_by(from_station_name) %>% 
  summarize(N = n()) %>%  arrange(desc(N)) ->popfromstations
popfromstations

## # A tibble: 51 x 2
##    from_station_name                          N
##    <chr>                                  <int>
##  1 REI / Yale Ave N & John St              3631
##  2 E Harrison St & Broadway Ave E          3570
##  3 E Pine St & 16th Ave                    3504
##  4 2nd Ave & Pine St                       3366
##  5 Westlake Ave & 6th Ave                  3281
##  6 Cal Anderson Park / 11th Ave & Pine St  3211
##  7 Pier 69 / Alaskan Way & Clay St         3108
##  8 2nd Ave & Vine St                       2924
##  9 PATH / 9th Ave & Westlake Ave           2900
## 10 3rd Ave & Broad St                      2703
## #  with 41 more rows
…
The least popular stations to depart from are Pronto shop, 8D OPS 02, Pronto shop 2, Pier 66 / Alaskan Way & Bell St, UW McCarty Hall / Whitman Ct, and Thomas St & 5th Ave N. The most popular stations to depart from are Pier 69 / Alaskan Way & Clay St, E Pine St & 16th Ave, 3rd Ave & Broad St, 2nd Ave & Pine St, Westlake Ave & 6th Ave, and E Harrison St & Broadway Ave E.

ds %>% group_by(to_station_name) %>% 
  summarize(N = n()) %>%  arrange(desc(N)) -> poptostations
poptostations

## # A tibble: 52 x 2
##    to_station_name                                          N
##    <chr>                                                <int>
##  1 2nd Ave & Pine St                                     4342
##  2 PATH / 9th Ave & Westlake Ave                         3926
##  3 REI / Yale Ave N & John St                            3899
##  4 7th Ave & Union St                                    3677
##  5 Westlake Ave & 6th Ave                                3567
##  6 Pier 69 / Alaskan Way & Clay St                       3483
##  7 Republican St & Westlake Ave N                        3240
##  8 Occidental Park / Occidental Ave S & S Washington St  3101
##  9 Pine St & 9th Ave                                     3089
## 10 2nd Ave & Spring St                                   3027
## #  with 42 more rows
…
The least popular stations to arrive at are 8D OPS 02, Pronto shop 2, Pronto shop, Pier 66 / Alaskan Way & Bell St, Broadway and E Denny Way, and UW McCarty Hall / Whitman Ct. Un-surprisingly the least and most popular stations to depart from and arrive at are very similar. The most popular stations to arrive at are 2nd Ave & Pine St, Pier 69 / Alaskan Way & Clay St, Westlake Ave & 6th Ave, 3rd Ave & Broad St, PATH / 9th Ave & Westlake Ave, and Occidental Park / Occidental Ave S & S Washington St.

ds %>% mutate(timeofdaystarted = starttime) -> ds4
ds4 %>% mutate(timeofdaystarted = substr(timeofdaystarted, 11, 16)) -> ds4
ds4 %>% mutate(timeofdaystopped = stoptime) ->ds4
ds4 %>% mutate(timeofdaystopped = substr(timeofdaystopped, 11, 16)) -> ds4
ds4

## # A tibble: 92,281 x 15
##    trip_id starttime stoptime bikeid tripduration from_station_na
##      <dbl> <chr>     <chr>    <chr>         <dbl> <chr>           
##  1     431 10/13/20 10/13/2 SEA00         986. 2nd Ave & Sprin
##  2     432 10/13/20 10/13/2 SEA00         926. 2nd Ave & Sprin
##  3     433 10/13/20 10/13/2 SEA00         884. 2nd Ave & Sprin
##  4     434 10/13/20 10/13/2 SEA00         866. 2nd Ave & Sprin
##  5     435 10/13/20 10/13/2 SEA00         924. 2nd Ave & Sprin
##  6     436 10/13/20 10/13/2 SEA00         809. 2nd Ave & Sprin
##  7     437 10/13/20 10/13/2 SEA00         597. Occidental Park
##  8     438 10/13/20 10/13/2 SEA00         592. Occidental Park
##  9     439 10/13/20 10/13/2 SEA00         586. Occidental Park
## 10     440 10/13/20 10/13/2 SEA00         588. Occidental Park
## #  with 92,271 more rows, and 9 more variables: to_station_name <chr>,
## #   from_station_id <chr>, to_station_id <chr>, usertype <chr>,
## #   gender <chr>, birthyear <dbl>, age <dbl>, timeofdaystarted <chr>,
## #   timeofdaystopped <chr>
…
## 
## Attaching package: 'lubridate'

## The following object is masked from 'package:base':
## 
##     date

ds4 %>% mutate(timeofdaystarted = ((as.numeric(seconds(hm(timeofdaystarted))))/60)/60) -> ds5

## Warning in .parse_hms(..., order = "HM", quiet = quiet): Some strings
## failed to parse, or all strings are NAs

ds5

## # A tibble: 92,281 x 15
##    trip_id starttime stoptime bikeid tripduration from_station_na
##      <dbl> <chr>     <chr>    <chr>         <dbl> <chr>           
##  1     431 10/13/20 10/13/2 SEA00         986. 2nd Ave & Sprin
##  2     432 10/13/20 10/13/2 SEA00         926. 2nd Ave & Sprin
##  3     433 10/13/20 10/13/2 SEA00         884. 2nd Ave & Sprin
##  4     434 10/13/20 10/13/2 SEA00         866. 2nd Ave & Sprin
##  5     435 10/13/20 10/13/2 SEA00         924. 2nd Ave & Sprin
##  6     436 10/13/20 10/13/2 SEA00         809. 2nd Ave & Sprin
##  7     437 10/13/20 10/13/2 SEA00         597. Occidental Park
##  8     438 10/13/20 10/13/2 SEA00         592. Occidental Park
##  9     439 10/13/20 10/13/2 SEA00         586. Occidental Park
## 10     440 10/13/20 10/13/2 SEA00         588. Occidental Park
## #  with 92,271 more rows, and 9 more variables: to_station_name <chr>,
## #   from_station_id <chr>, to_station_id <chr>, usertype <chr>,
## #   gender <chr>, birthyear <dbl>, age <dbl>, timeofdaystarted <dbl>,
## #   timeofdaystopped <chr>
…
The graph shows that people are taking trips just before 10am or just before 8pm. There are very few late at night or very early in the morning. This however correspond to the hours you would go to or leave work, a 9am-5pm or 8am-4pm work cycle.

ds5 %>% mutate(timeofdaystopped = ((as.numeric(seconds(hm(timeofdaystopped))))/60)/60) -> ds5

## Warning in .parse_hms(..., order = "HM", quiet = quiet): Some strings
## failed to parse, or all strings are NAs

ds5

## # A tibble: 92,281 x 15
##    trip_id starttime stoptime bikeid tripduration from_station_na
##      <dbl> <chr>     <chr>    <chr>         <dbl> <chr>           
##  1     431 10/13/20 10/13/2 SEA00         986. 2nd Ave & Sprin
##  2     432 10/13/20 10/13/2 SEA00         926. 2nd Ave & Sprin
##  3     433 10/13/20 10/13/2 SEA00         884. 2nd Ave & Sprin
##  4     434 10/13/20 10/13/2 SEA00         866. 2nd Ave & Sprin
##  5     435 10/13/20 10/13/2 SEA00         924. 2nd Ave & Sprin
##  6     436 10/13/20 10/13/2 SEA00         809. 2nd Ave & Sprin
##  7     437 10/13/20 10/13/2 SEA00         597. Occidental Park
##  8     438 10/13/20 10/13/2 SEA00         592. Occidental Park
##  9     439 10/13/20 10/13/2 SEA00         586. Occidental Park
## 10     440 10/13/20 10/13/2 SEA00         588. Occidental Park
## #  with 92,271 more rows, and 9 more variables: to_station_name <chr>,
## #   from_station_id <chr>, to_station_id <chr>, usertype <chr>,
## #   gender <chr>, birthyear <dbl>, age <dbl>, timeofdaystarted <dbl>,
## #   timeofdaystopped <dbl>
…
Since most trips are very short the this graph looks very similar to the time of day that trips started. For similar reasons.

ds5 %>% mutate(dayofweek = starttime) -> ds5
ds5 %>% mutate(dayofweek = substr(dayofweek, 0, 10)) -> ds5
ds5 %>% mutate(dayofweek = wday(mdy(dayofweek), label = TRUE)) -> ds5

## Warning: 16544 failed to parse.

ds5

## # A tibble: 92,281 x 16
##    trip_id starttime stoptime bikeid tripduration from_station_na
##      <dbl> <chr>     <chr>    <chr>         <dbl> <chr>           
##  1     431 10/13/20 10/13/2 SEA00         986. 2nd Ave & Sprin
##  2     432 10/13/20 10/13/2 SEA00         926. 2nd Ave & Sprin
##  3     433 10/13/20 10/13/2 SEA00         884. 2nd Ave & Sprin
##  4     434 10/13/20 10/13/2 SEA00         866. 2nd Ave & Sprin
##  5     435 10/13/20 10/13/2 SEA00         924. 2nd Ave & Sprin
##  6     436 10/13/20 10/13/2 SEA00         809. 2nd Ave & Sprin
##  7     437 10/13/20 10/13/2 SEA00         597. Occidental Park
##  8     438 10/13/20 10/13/2 SEA00         592. Occidental Park
##  9     439 10/13/20 10/13/2 SEA00         586. Occidental Park
## 10     440 10/13/20 10/13/2 SEA00         588. Occidental Park
## #  with 92,271 more rows, and 10 more variables: to_station_name <chr>,
## #   from_station_id <chr>, to_station_id <chr>, usertype <chr>,
## #   gender <chr>, birthyear <dbl>, age <dbl>, timeofdaystarted <dbl>,
## #   timeofdaystopped <dbl>, dayofweek <ord>
…
